D:\Ethereum\ICO Projects\Bio_Coin\repo\biocoin_backend_api\src\main\java\com\biocoin\dto\PaypalDTO.java
D:\Ethereum\ICO Projects\Bio_Coin\repo\biocoin_backend_api\src\main\java\com\biocoin\repo\TransactionInfoRepository.java
D:\Ethereum\ICO Projects\Bio_Coin\repo\biocoin_backend_api\src\main\java\com\biocoin\service\impl\QRCodeGenerateServiceimpl.java
D:\Ethereum\ICO Projects\Bio_Coin\repo\biocoin_backend_api\src\main\java\com\biocoin\service\impl\EmailNotificationServiceImpl.java
D:\Ethereum\ICO Projects\Bio_Coin\repo\biocoin_backend_api\src\main\java\com\biocoin\controller\AdminActivitiesController.java
D:\Ethereum\ICO Projects\Bio_Coin\repo\biocoin_backend_api\src\main\java\com\biocoin\model\SecurityInfo.java
D:\Ethereum\ICO Projects\Bio_Coin\repo\biocoin_backend_api\src\main\java\com\biocoin\service\BiocoinValueService.java
D:\Ethereum\ICO Projects\Bio_Coin\repo\biocoin_backend_api\src\main\java\com\biocoin\repo\BitcoinConfigInfoRepository.java
D:\Ethereum\ICO Projects\Bio_Coin\repo\biocoin_backend_api\src\main\java\com\biocoin\service\impl\UserRegisterServiceImpl.java
D:\Ethereum\ICO Projects\Bio_Coin\repo\biocoin_backend_api\src\main\java\com\biocoin\controller\UserRegisterController.java
D:\Ethereum\ICO Projects\Bio_Coin\repo\biocoin_backend_api\src\main\java\com\biocoin\repo\UserRegisterRepository.java
D:\Ethereum\ICO Projects\Bio_Coin\repo\biocoin_backend_api\src\main\java\com\biocoin\utils\CurrentValueUtils.java
D:\Ethereum\ICO Projects\Bio_Coin\repo\biocoin_backend_api\src\main\java\com\biocoin\service\UserRegisterService.java
D:\Ethereum\ICO Projects\Bio_Coin\repo\biocoin_backend_api\src\main\java\com\biocoin\model\Token_info.java
D:\Ethereum\ICO Projects\Bio_Coin\repo\biocoin_backend_api\src\main\java\com\biocoin\controller\UserActivitiesController.java
D:\Ethereum\ICO Projects\Bio_Coin\repo\biocoin_backend_api\src\main\java\com\biocoin\solidityHandler\SolidityHandler.java
D:\Ethereum\ICO Projects\Bio_Coin\repo\biocoin_backend_api\src\main\java\com\biocoin\model\ExpirationDataInfo.java
D:\Ethereum\ICO Projects\Bio_Coin\repo\biocoin_backend_api\src\main\java\com\biocoin\model\TokenAllocationForTopManagementsInfo.java
D:\Ethereum\ICO Projects\Bio_Coin\repo\biocoin_backend_api\src\main\java\com\biocoin\service\impl\TransactionHistoryServiceImpl.java
D:\Ethereum\ICO Projects\Bio_Coin\repo\biocoin_backend_api\src\main\java\com\biocoin\model\ICOPeriodInfo.java
D:\Ethereum\ICO Projects\Bio_Coin\repo\biocoin_backend_api\src\main\java\com\biocoin\service\impl\TokenServiceImplementation.java
D:\Ethereum\ICO Projects\Bio_Coin\repo\biocoin_backend_api\src\main\java\com\biocoin\model\PaymentsInfo.java
D:\Ethereum\ICO Projects\Bio_Coin\repo\biocoin_backend_api\src\main\java\com\biocoin\dto\StatusResponseDTO.java
D:\Ethereum\ICO Projects\Bio_Coin\repo\biocoin_backend_api\src\main\java\com\biocoin\repo\PurchaseTokenInfoRepository.java
D:\Ethereum\ICO Projects\Bio_Coin\repo\biocoin_backend_api\src\main\java\com\biocoin\model\BurnedToken.java
D:\Ethereum\ICO Projects\Bio_Coin\repo\biocoin_backend_api\src\main\java\com\biocoin\dto\KycDTO.java
D:\Ethereum\ICO Projects\Bio_Coin\repo\biocoin_backend_api\src\main\java\com\biocoin\service\impl\SecurityInfoServiceImpl.java
D:\Ethereum\ICO Projects\Bio_Coin\repo\biocoin_backend_api\src\main\java\com\biocoin\scheduler\Schedular.java
D:\Ethereum\ICO Projects\Bio_Coin\repo\biocoin_backend_api\src\main\java\com\biocoin\repo\QRCodeRepository.java
D:\Ethereum\ICO Projects\Bio_Coin\repo\biocoin_backend_api\src\main\java\com\biocoin\model\BitcoinInfo.java
D:\Ethereum\ICO Projects\Bio_Coin\repo\biocoin_backend_api\src\main\java\com\biocoin\model\UserRequestCoinInfo.java
D:\Ethereum\ICO Projects\Bio_Coin\repo\biocoin_backend_api\src\main\java\com\biocoin\service\HibernateServiceDao.java
D:\Ethereum\ICO Projects\Bio_Coin\repo\biocoin_backend_api\src\main\java\com\biocoin\utils\FcmUtils.java
D:\Ethereum\ICO Projects\Bio_Coin\repo\biocoin_backend_api\src\main\java\com\biocoin\service\TransactionHistoryService.java
D:\Ethereum\ICO Projects\Bio_Coin\repo\biocoin_backend_api\src\main\java\com\biocoin\utils\SessionCollector.java
D:\Ethereum\ICO Projects\Bio_Coin\repo\biocoin_backend_api\src\main\java\com\biocoin\Application.java
D:\Ethereum\ICO Projects\Bio_Coin\repo\biocoin_backend_api\src\main\java\com\biocoin\service\MintedTokenService.java
D:\Ethereum\ICO Projects\Bio_Coin\repo\biocoin_backend_api\src\main\java\com\biocoin\utils\DBConfiguration.java
D:\Ethereum\ICO Projects\Bio_Coin\repo\biocoin_backend_api\src\main\java\com\biocoin\repo\BurnedInfoRepo.java
D:\Ethereum\ICO Projects\Bio_Coin\repo\biocoin_backend_api\src\main\java\com\biocoin\model\History.java
D:\Ethereum\ICO Projects\Bio_Coin\repo\biocoin_backend_api\src\main\java\com\biocoin\utils\BioCoinUtils.java
D:\Ethereum\ICO Projects\Bio_Coin\repo\biocoin_backend_api\src\main\java\com\biocoin\utils\BitCoinUtils.java
D:\Ethereum\ICO Projects\Bio_Coin\repo\biocoin_backend_api\src\main\java\com\biocoin\repo\ConfigInfoRepository.java
D:\Ethereum\ICO Projects\Bio_Coin\repo\biocoin_backend_api\src\main\java\com\biocoin\service\EmailNotificationService.java
D:\Ethereum\ICO Projects\Bio_Coin\repo\biocoin_backend_api\src\main\java\com\biocoin\model\Config.java
D:\Ethereum\ICO Projects\Bio_Coin\repo\biocoin_backend_api\src\main\java\com\biocoin\repo\BitcoinInfoRepository.java
D:\Ethereum\ICO Projects\Bio_Coin\repo\biocoin_backend_api\src\main\java\com\biocoin\controller\TokenActivitiesController.java
D:\Ethereum\ICO Projects\Bio_Coin\repo\biocoin_backend_api\src\main\java\com\biocoin\model\RegisterInfo.java
D:\Ethereum\ICO Projects\Bio_Coin\repo\biocoin_backend_api\src\main\java\com\biocoin\utils\UserUtils.java
D:\Ethereum\ICO Projects\Bio_Coin\repo\biocoin_backend_api\src\main\java\com\biocoin\model\HoldTokensInfo.java
D:\Ethereum\ICO Projects\Bio_Coin\repo\biocoin_backend_api\src\main\java\com\biocoin\service\ExpirationDataService.java
D:\Ethereum\ICO Projects\Bio_Coin\repo\biocoin_backend_api\src\main\java\com\biocoin\model\BitcoinConfigInfo.java
D:\Ethereum\ICO Projects\Bio_Coin\repo\biocoin_backend_api\src\main\java\com\biocoin\model\KycInfo.java
D:\Ethereum\ICO Projects\Bio_Coin\repo\biocoin_backend_api\src\main\java\com\biocoin\service\TokenService.java
D:\Ethereum\ICO Projects\Bio_Coin\repo\biocoin_backend_api\src\main\java\com\biocoin\model\MintedToken.java
D:\Ethereum\ICO Projects\Bio_Coin\repo\biocoin_backend_api\src\main\java\com\biocoin\utils\EncryptDecrypt.java
D:\Ethereum\ICO Projects\Bio_Coin\repo\biocoin_backend_api\src\main\java\com\biocoin\model\PurchaseTokenInfo.java
D:\Ethereum\ICO Projects\Bio_Coin\repo\biocoin_backend_api\src\main\java\com\biocoin\repo\ICOPeriodInfoRepo.java
D:\Ethereum\ICO Projects\Bio_Coin\repo\biocoin_backend_api\src\main\java\com\biocoin\repo\TokensInfoRepo.java
D:\Ethereum\ICO Projects\Bio_Coin\repo\biocoin_backend_api\src\main\java\com\biocoin\service\impl\BiocoinValueServiceImpl.java
D:\Ethereum\ICO Projects\Bio_Coin\repo\biocoin_backend_api\src\main\java\com\biocoin\repo\KycInfoRepository.java
D:\Ethereum\ICO Projects\Bio_Coin\repo\biocoin_backend_api\src\main\java\com\biocoin\service\SecurityInfoService.java
D:\Ethereum\ICO Projects\Bio_Coin\repo\biocoin_backend_api\src\main\java\com\biocoin\dto\UserRegisterDTO.java
D:\Ethereum\ICO Projects\Bio_Coin\repo\biocoin_backend_api\src\main\java\com\biocoin\repo\PaymentInfoRepo.java
D:\Ethereum\ICO Projects\Bio_Coin\repo\biocoin_backend_api\src\main\java\com\biocoin\dto\TokenDTO.java
D:\Ethereum\ICO Projects\Bio_Coin\repo\biocoin_backend_api\src\main\java\com\biocoin\repo\ExpirationDataInfoRepo.java
D:\Ethereum\ICO Projects\Bio_Coin\repo\biocoin_backend_api\src\main\java\com\biocoin\repo\UserRequestCoinRepository.java
D:\Ethereum\ICO Projects\Bio_Coin\repo\biocoin_backend_api\src\main\java\com\biocoin\utils\BioCoinConstants.java
D:\Ethereum\ICO Projects\Bio_Coin\repo\biocoin_backend_api\src\main\java\com\biocoin\repo\HoldTokensInfoRepo.java
D:\Ethereum\ICO Projects\Bio_Coin\repo\biocoin_backend_api\src\main\java\com\biocoin\model\QRCode.java
D:\Ethereum\ICO Projects\Bio_Coin\repo\biocoin_backend_api\src\main\java\com\biocoin\service\BurnedTokenService.java
D:\Ethereum\ICO Projects\Bio_Coin\repo\biocoin_backend_api\src\main\java\com\biocoin\service\impl\ExpirationDataServiceImpl.java
D:\Ethereum\ICO Projects\Bio_Coin\repo\biocoin_backend_api\src\main\java\com\biocoin\repo\TokenAllocationForTopManagementsInfoRepo.java
D:\Ethereum\ICO Projects\Bio_Coin\repo\biocoin_backend_api\src\main\java\com\biocoin\solidityToJava\Biokkoin.java
D:\Ethereum\ICO Projects\Bio_Coin\repo\biocoin_backend_api\src\main\java\com\biocoin\controller\UserMobileActivitiesController.java
D:\Ethereum\ICO Projects\Bio_Coin\repo\biocoin_backend_api\src\main\java\com\biocoin\dto\LoginDTO.java
D:\Ethereum\ICO Projects\Bio_Coin\repo\biocoin_backend_api\src\main\java\com\biocoin\model\TransactionHistory.java
D:\Ethereum\ICO Projects\Bio_Coin\repo\biocoin_backend_api\src\main\java\com\biocoin\service\impl\HibernateServiceDaoImpl.java
D:\Ethereum\ICO Projects\Bio_Coin\repo\biocoin_backend_api\src\main\java\com\biocoin\model\BiocoinValue.java
D:\Ethereum\ICO Projects\Bio_Coin\repo\biocoin_backend_api\src\main\java\com\biocoin\repo\MintTokenInfoRepo.java
